…
```r
gapminder %>% 
  filter(lifeExp>=49 & lifeExp<60)
```

--- .class #id


## Further Filtering


```
## # A tibble: 373 x 6
##    country    continent  year lifeExp      pop gdpPercap
##    <fct>      <fct>     <int>   <dbl>    <int>     <dbl>
##  1 Albania    Europe     1952    55.2  1282697     1601.
##  2 Albania    Europe     1957    59.3  1476505     1942.
##  3 Algeria    Africa     1967    51.4 12760499     3247.
##  4 Algeria    Africa     1972    54.5 14760787     4183.
##  5 Algeria    Africa     1977    58.0 17152804     4910.
##  6 Bahrain    Asia       1952    50.9   120447     9867.
##  7 Bahrain    Asia       1957    53.8   138655    11636.
##  8 Bahrain    Asia       1962    56.9   171863    12753.
##  9 Bahrain    Asia       1967    59.9   202182    14805.
## 10 Bangladesh Asia       1982    50.0 93074406      677.
## # ... with 363 more rows
```
…
--- .class #id


## On Your Own: RStudio Practice #5



Your end result should be:


```
## # A tibble: 24 x 6
##    country continent  year lifeExp     pop gdpPercap
##    <fct>   <fct>     <int>   <dbl>   <int>     <dbl>
##  1 Rwanda  Africa     1952    40   2534927      493.
##  2 Rwanda  Africa     1957    41.5 2822082      540.
##  3 Rwanda  Africa     1962    43   3051242      597.
##  4 Rwanda  Africa     1967    44.1 3451079      511.
##  5 Rwanda  Africa     1972    44.6 3992121      591.
##  6 Rwanda  Africa     1977    45   4657072      670.
##  7 Rwanda  Africa     1982    46.2 5507565      882.
##  8 Rwanda  Africa     1987    44.0 6349365      848.
##  9 Rwanda  Africa     1992    23.6 7290203      737.
## 10 Rwanda  Africa     1997    36.1 7212583      590.
## # ... with 14 more rows
```
…
```r
gapminder %>%
  select(country, lifeExp, year)
```


--- .class #id

## Selecting Example: Tidyverse Way 




```
## # A tibble: 1,704 x 3
##    country     lifeExp  year
##    <fct>         <dbl> <int>
##  1 Afghanistan    28.8  1952
##  2 Afghanistan    30.3  1957
##  3 Afghanistan    32.0  1962
##  4 Afghanistan    34.0  1967
##  5 Afghanistan    36.1  1972
##  6 Afghanistan    38.4  1977
##  7 Afghanistan    39.9  1982
##  8 Afghanistan    40.8  1987
##  9 Afghanistan    41.7  1992
## 10 Afghanistan    41.8  1997
## # ... with 1,694 more rows
```
…
```r
gapminder %>%
  select(-matches("Per"))
```

--- .class #id

## Removing Columns



```
## # A tibble: 1,704 x 5
##    country     continent  year lifeExp      pop
##    <fct>       <fct>     <int>   <dbl>    <int>
##  1 Afghanistan Asia       1952    28.8  8425333
##  2 Afghanistan Asia       1957    30.3  9240934
##  3 Afghanistan Asia       1962    32.0 10267083
##  4 Afghanistan Asia       1967    34.0 11537966
##  5 Afghanistan Asia       1972    36.1 13079460
##  6 Afghanistan Asia       1977    38.4 14880372
##  7 Afghanistan Asia       1982    39.9 12881816
##  8 Afghanistan Asia       1987    40.8 13867957
##  9 Afghanistan Asia       1992    41.7 16317921
## 10 Afghanistan Asia       1997    41.8 22227415
## # ... with 1,694 more rows
```
…
--- .class #id

## On Your Own: RStudio Practice # 6


Your answer should look like:


```
## # A tibble: 1,704 x 1
##    gdpPercap
##        <dbl>
##  1      779.
##  2      821.
##  3      853.
##  4      836.
##  5      740.
##  6      786.
##  7      978.
##  8      852.
##  9      649.
## 10      635.
## # ... with 1,694 more rows
```
…
## Arranging the Data Example: Tidyverse Way

```r
gapminder %>%
    select(country,year,  lifeExp) %>%
    arrange(lifeExp)
```

--- .class #id

## Arranging the Data Example: Tidyverse Way


```
## # A tibble: 1,704 x 3
##    country       year lifeExp
##    <fct>        <int>   <dbl>
##  1 Rwanda        1992    23.6
##  2 Afghanistan   1952    28.8
##  3 Gambia        1952    30  
##  4 Angola        1952    30.0
##  5 Sierra Leone  1952    30.3
##  6 Afghanistan   1957    30.3
##  7 Cambodia      1977    31.2
##  8 Mozambique    1952    31.3
##  9 Sierra Leone  1957    31.6
## 10 Burkina Faso  1952    32.0
## # ... with 1,694 more rows
```
…
- Where
    - `group_by()` is a way to group data. This way we perform operations on a group. So top 3 life expectancy are grouped by year. 
    - `top_n()`takes a tibble and returns a specific number of rows based on a chosen value. 


--- .class #id

## More Complex Arrange Continued



```
## # A tibble: 36 x 6
## # Groups:   year [12]
##    country          continent  year lifeExp       pop gdpPercap
##    <fct>            <fct>     <int>   <dbl>     <int>     <dbl>
##  1 Japan            Asia       2007    82.6 127467972    31656.
##  2 Hong Kong, China Asia       2007    82.2   6980412    39725.
##  3 Japan            Asia       2002    82   127065841    28605.
##  4 Iceland          Europe     2007    81.8    301931    36181.
##  5 Hong Kong, China Asia       2002    81.5   6762476    30209.
##  6 Japan            Asia       1997    80.7 125956499    28817.
##  7 Switzerland      Europe     2002    80.6   7361757    34481.
##  8 Hong Kong, China Asia       1997    80     6495918    28378.
##  9 Sweden           Europe     1997    79.4   8897619    25267.
## 10 Japan            Asia       1992    79.4 124329269    26825.
## # ... with 26 more rows
```
…
```r
gapminder %>%
    group_by(country) %>%
    summarise(avg_lifeExp = mean(lifeExp, na.rm=TRUE))
```

--- .class #id


## Summarizing Data Example: Tidyverse Way 



```
## # A tibble: 142 x 2
##    country     avg_lifeExp
##    <fct>             <dbl>
##  1 Afghanistan        37.5
##  2 Albania            68.4
##  3 Algeria            59.0
##  4 Angola             37.9
##  5 Argentina          69.1
##  6 Australia          74.7
##  7 Austria            73.1
##  8 Bahrain            65.6
##  9 Bangladesh         49.8
## 10 Belgium            73.6
## # ... with 132 more rows
```
…
## Another Example




```
## `summarise_each()` is deprecated.
## Use `summarise_all()`, `summarise_at()` or `summarise_if()` instead.
## To map `funs` over a selection of variables, use `summarise_at()`
```

```
## # A tibble: 142 x 3
##    country       min   max
##    <fct>       <dbl> <dbl>
##  1 Afghanistan  28.8  43.8
##  2 Albania      55.2  76.4
##  3 Algeria      43.1  72.3
##  4 Angola       30.0  42.7
##  5 Argentina    62.5  75.3
##  6 Australia    69.1  81.2
##  7 Austria      66.8  79.8
##  8 Bahrain      50.9  75.6
##  9 Bangladesh   37.5  64.1
## 10 Belgium      68    79.4
## # ... with 132 more rows
```
…
--- .class #id

## On Your Own: RStudio Practice # 8 

- We could also have used what is called the  `tally()` function:


```r
gapminder %>%
    group_by(country, year) %>%
    tally(sort = TRUE)
```

```
## # A tibble: 1,704 x 3
## # Groups:   country [142]
##    country      year     n
##    <fct>       <int> <int>
##  1 Afghanistan  1952     1
##  2 Afghanistan  1957     1
##  3 Afghanistan  1962     1
##  4 Afghanistan  1967     1
##  5 Afghanistan  1972     1
##  6 Afghanistan  1977     1
##  7 Afghanistan  1982     1
##  8 Afghanistan  1987     1
##  9 Afghanistan  1992     1
## 10 Afghanistan  1997     1
## # ... with 1,694 more rows
```
…
```r
gapminder %>% 
  select(country, gdpPercap, pop) %>%
  mutate(gdp = gdpPercap*pop)
```

--- .class #id

## Example: Mutate


```
## # A tibble: 1,704 x 4
##    country     gdpPercap      pop          gdp
##    <fct>           <dbl>    <int>        <dbl>
##  1 Afghanistan      779.  8425333  6567086330.
##  2 Afghanistan      821.  9240934  7585448670.
##  3 Afghanistan      853. 10267083  8758855797.
##  4 Afghanistan      836. 11537966  9648014150.
##  5 Afghanistan      740. 13079460  9678553274.
##  6 Afghanistan      786. 14880372 11697659231.
##  7 Afghanistan      978. 12881816 12598563401.
##  8 Afghanistan      852. 13867957 11820990309.
##  9 Afghanistan      649. 16317921 10595901589.
## 10 Afghanistan      635. 22227415 14121995875.
## # ... with 1,694 more rows
```
…
```r
gapminder %>% 
  select(country, gdpPercap, pop) %>%
  transmute(gdp = gdpPercap*pop)
```


--- .class #id

## Example: transmute



```
## # A tibble: 1,704 x 1
##             gdp
##           <dbl>
##  1  6567086330.
##  2  7585448670.
##  3  8758855797.
##  4  9648014150.
##  5  9678553274.
##  6 11697659231.
##  7 12598563401.
##  8 11820990309.
##  9 10595901589.
## 10 14121995875.
## # ... with 1,694 more rows
```
…
