…
## On Your Own: RStudio Practice #9

- You should see the table that we have above, now We have a variable named `year`, assume that we wish to actually have each year as its own variable. 
- Using the `spread()` function, redo this data so that each year is a variable. 
- Your data will look like this at the end:


--- .class #id

## On Your Own: RStudio Practice #9 


```
## # A tibble: 219 x 20
##    country `1995` `1996` `1997` `1998` `1999` `2000` `2001` `2002` `2003`
##    <chr>    <int>  <int>  <int>  <int>  <int>  <int>  <int>  <int>  <int>
##  1 Afghan~ 1.76e7 1.84e7 1.90e7 1.95e7 2.00e7 2.06e7 2.13e7 2.22e7 2.31e7
##  2 Albania 3.36e6 3.34e6 3.33e6 3.33e6 3.32e6 3.30e6 3.29e6 3.26e6 3.24e6
##  3 Algeria 2.93e7 2.98e7 3.03e7 3.08e7 3.13e7 3.17e7 3.22e7 3.26e7 3.30e7
##  4 Americ~ 5.29e4 5.39e4 5.49e4 5.59e4 5.68e4 5.75e4 5.82e4 5.87e4 5.91e4
##  5 Andorra 6.39e4 6.43e4 6.41e4 6.38e4 6.41e4 6.54e4 6.80e4 7.16e4 7.56e4
##  6 Angola  1.21e7 1.25e7 1.28e7 1.31e7 1.35e7 1.39e7 1.44e7 1.49e7 1.54e7
##  7 Anguil~ 9.81e3 1.01e4 1.03e4 1.05e4 1.08e4 1.11e4 1.14e4 1.17e4 1.20e4
##  8 Antigu~ 6.83e4 7.02e4 7.22e4 7.42e4 7.60e4 7.76e4 7.90e4 8.00e4 8.09e4
##  9 Argent~ 3.48e7 3.53e7 3.57e7 3.61e7 3.65e7 3.69e7 3.73e7 3.76e7 3.80e7
## 10 Armenia 3.22e6 3.17e6 3.14e6 3.11e6 3.09e6 3.08e6 3.06e6 3.05e6 3.04e6
## # ... with 209 more rows, and 10 more variables: `2004` <int>,
## #   `2005` <int>, `2006` <int>, `2007` <int>, `2008` <int>, `2009` <int>,
## #   `2010` <int>, `2011` <int>, `2012` <int>, `2013` <int>
```
…
